317,'IEEE Annals of the History of Computing'
340,'Electronic Markets'
389,'Commun. ACM'
531,'Inf. Soc.'
592,'J. ACM'
788,'IBM Systems Journal'
867,'Information Systems Research'
889,'First Monday'
894,'IBM Journal of Research and Development'
903,'J. Computer-Mediated Communication'
908,'LLC'
911,'MIS Quarterly'
988,'Comput. J.'
1080,'IEEE Robot. Automat. Mag.'
1136,'Praxis der Informationsverarbeitung und Kommunikation'
1147,'Proceedings of the IEEE'
1174,'New Media & Society'
1250,'Speech Communication'
1260,'J. Network Syst. Manage.'
1302,'IEEE Technol. Soc. Mag.'
1391,'History and Computing'
1404,'Distributed Computing'
1439,'Elektronische Rechenanlagen'
